{
	"373301": "dota",
	"381450": "dota",
	"373306": "dota",
	"381451": "dota",
	"381452": "dota",
	"381453": "dota",
	"381454": "dota",
	"381455": "dota",
	"401537": "dota",
	"570": "dota",
	
	"583950": "artifact",
	"583951": "artifact",
	"583954": "artifact",
	"1269260": "artifact_beta",
	"1269261": "artifact_beta",
	"1269264": "artifact_beta",
	
	"546560": "halflifealyx",
	"546561": "halflifealyx",
	"546563": "halflifealyx",
	"1295040": "halflifealyx",

	"1046930": "underlords",
	"1046935": "underlords",
	"1046931": "underlords",
	"1046934": "underlords",
	
	"232252": "tf",
	"441": "tf",
	"440": "tf",
	
	"734": "csgo",
	"731": "csgo",
	"730": "csgo",
	"737": "csgo",
	
	"221": "hl2",
	"223": "hl2",
	"389": "hl2ep1",
	"420": "hl2ep2",
	"321": "hl2dm",
	"232372": "hl2dm",
	"401": "portal",
	"403": "portal",
	"621": "portal2",
	"624": "portal2",
	"631": "alienswarm",
	"502": "l4d",
	"515": "l4d",
	"551": "l4d2",
	"553": "l4d2",
	
	"250820": "steamvr",
	"250822": "steamvr",
	"250824": "steamvr",
	"250827": "steamvr",
	"250830": "steamvr",
	"250833": "steamvr",
	"250832": "steamvr"
}
